<?xml version="1.0" encoding="utf-8"?>
<!-- Generator: Adobe Illustrator 15.0.0, SVG Export Plug-In  -->
<!DOCTYPE svg PUBLIC "-//W3C//DTD SVG 1.1//EN" "http://www.w3.org/Graphics/SVG/1.1/DTD/svg11.dtd" [
	<!ENTITY ns_flows "http://ns.adobe.com/Flows/1.0/">
]>
<svg version="1.1"
	 xmlns="http://www.w3.org/2000/svg" xmlns:xlink="http://www.w3.org/1999/xlink" xmlns:a="http://ns.adobe.com/AdobeSVGViewerExtensions/3.0/"
	 x="0px" y="0px" width="45px" height="45px" viewBox="-3.363 -3.025 45 45"
	 overflow="visible" enable-background="new -3.363 -3.025 45 45" xml:space="preserve">
<defs>
</defs>
<linearGradient id="SVGID_1_" gradientUnits="userSpaceOnUse" x1="23.042" y1="7.6885" x2="23.042" y2="42.0956">
	<stop  offset="0" style="stop-color:#6BB8D6"/>
	<stop  offset="1" style="stop-color:#518996"/>
</linearGradient>
<path fill="url(#SVGID_1_)" d="M24.802,10.583c-2.577,0-5.139,2.765-6.834,5.085l-0.077,0.106l0.13,0.02
	c4.078,0.613,4.394,1.601,4.968,3.394c0.113,0.355,0.237,0.742,0.402,1.162l0.054,0.138l0.085-0.122
	c0.363-0.52,0.952-1.093,1.574-1.7c1.802-1.758,4.044-3.944,2.662-6.571C26.881,11.086,25.888,10.583,24.802,10.583z"/>
<linearGradient id="SVGID_2_" gradientUnits="userSpaceOnUse" x1="19.3965" y1="0" x2="19.3965" y2="38.7939">
	<stop  offset="0" style="stop-color:#6BB8D6"/>
	<stop  offset="1" style="stop-color:#518996"/>
</linearGradient>
<path fill="url(#SVGID_2_)" d="M19.396,0C8.684,0,0,8.684,0,19.397C0,30.11,8.684,38.794,19.396,38.794
	c10.714,0,19.397-8.684,19.397-19.396C38.793,8.684,30.109,0,19.396,0z M24.911,21.117c-0.571,0.575-1.112,1.119-1.575,1.64
	c-0.224,0.252-0.459,0.851-0.705,1.134c-2.113,2.43-5.007,6.084-8.105,6.084h-0.067c-2.264,0-4.72-1.779-5.104-4.862
	c-0.316-2.548,2.374-5.358,4.535-7.484c0.357-0.351,0.704-0.774,1.024-1.102c0.415-0.425,0.845-0.911,1.281-1.364
	c2.506-2.602,5.346-5.572,6.907-5.811l0.218-0.043c0.447-0.072,1.062-0.177,1.735-0.177c2.303,0,3.746,1.208,4.288,3.595
	C30.072,15.924,27.33,18.682,24.911,21.117z"/>
</svg>
