<?xml version="1.0" encoding="utf-8"?>
<!-- Generator: Adobe Illustrator 15.0.0, SVG Export Plug-In  -->
<!DOCTYPE svg PUBLIC "-//W3C//DTD SVG 1.1//EN" "http://www.w3.org/Graphics/SVG/1.1/DTD/svg11.dtd" [
	<!ENTITY ns_flows "http://ns.adobe.com/Flows/1.0/">
]>
<svg version="1.1"
	 xmlns="http://www.w3.org/2000/svg" xmlns:xlink="http://www.w3.org/1999/xlink" xmlns:a="http://ns.adobe.com/AdobeSVGViewerExtensions/3.0/"
	 x="0px" y="0px" width="45px" height="45px" viewBox="-2.363 -3.525 45 45"
	 overflow="visible" enable-background="new -2.363 -3.525 45 45" xml:space="preserve">
<defs>
</defs>
<linearGradient id="SVGID_1_" gradientUnits="userSpaceOnUse" x1="18.6484" y1="20.2607" x2="18.6484" y2="27.4619">
	<stop  offset="0" style="stop-color:#518CA3"/>
	<stop  offset="1" style="stop-color:#3F6C7A"/>
</linearGradient>
<path fill="url(#SVGID_1_)" d="M16.988,21.832c-0.121-0.34-0.242-0.68-0.371-1.013l-0.213-0.559l-0.346,0.489
	c-0.885,1.256-0.959,2.88-0.199,4.344c0.746,1.438,2.145,2.368,3.561,2.368c0.568,0,1.127-0.143,1.658-0.423l0.881-0.463
	l-0.984-0.135C18.51,26.104,17.77,24.029,16.988,21.832z"/>
<linearGradient id="SVGID_2_" gradientUnits="userSpaceOnUse" x1="19.3965" y1="0" x2="19.3965" y2="38.7939">
	<stop  offset="0" style="stop-color:#518CA3"/>
	<stop  offset="1" style="stop-color:#3F6C7A"/>
</linearGradient>
<path fill="url(#SVGID_2_)" d="M19.396,0C8.684,0,0,8.684,0,19.397C0,30.11,8.684,38.794,19.396,38.794s19.396-8.684,19.396-19.396
	C38.793,8.684,30.109,0,19.396,0z M23.064,27.98c-3.693,2.474-8.756,0.333-9.465-3.154c-1.113-5.489,3.715-11.188,5.34-13.59
	c0.156-0.231,0.184-0.639,0.484-0.729C22.248,13.637,28.83,24.119,23.064,27.98z"/>
</svg>
